interactions:
- request:
    body: '{"data": {"type": "services", "attributes": {"name": "datadog-api-client-python-test_get_a_list_of_all_incident_services_returns_ok_response-1606385968.134523"}}}'
    headers:
      Accept:
      - application/json
      Content-Type:
      - application/json
      Dd-Operation-Id:
      - CreateIncidentService
      User-Agent:
      - datadog-api-client-python/1.0.0b4.dev14+dirty (python 3.8.6; os Darwin; arch
        x86_64)
      x-datadog-parent-id:
      - '10640270811662402476'
      x-datadog-sampling-priority:
      - '1'
      x-datadog-trace-id:
      - '6378202318063383120'
    method: POST
    uri: https://api.datadoghq.com/api/v2/services
  response:
    body:
      string: '{"included":[{"type":"users","id":"3ad549bf-eba0-11e9-a77a-0705486660d0","attributes":{"name":null,"handle":"frog@datadoghq.com","created_at":"2019-10-02T08:15:39.795051+00:00","email":"frog@datadoghq.com","icon":"https://secure.gravatar.com/avatar/28a16dfe36e73b60c1d55872cb0f1172?s=48&d=retro","title":null,"verified":true,"service_account":false,"disabled":false,"allowed_login_methods":[],"status":"Active"},"relationships":{"org":{"data":{"type":"orgs","id":"4dee724d-00cc-11ea-a77b-570c9d03c6c5"}}}}],"data":{"type":"services","id":"c865f712-6790-5883-b058-5a475b85e5fd","attributes":{"name":"datadog-api-client-python-test_get_a_list_of_all_incident_services_returns_ok_response-1606385968.134523","created":"2020-11-26T10:19:28.598213+00:00","modified":"2020-11-26T10:19:28.598213+00:00"},"relationships":{"last_modified_by":{"data":{"type":"users","id":"3ad549bf-eba0-11e9-a77a-0705486660d0"}},"created_by":{"data":{"type":"users","id":"3ad549bf-eba0-11e9-a77a-0705486660d0"}}}}}'
    headers:
      Cache-Control:
      - no-cache
      Connection:
      - keep-alive
      Content-Length:
      - '988'
      Content-Security-Policy:
      - frame-ancestors 'self'; report-uri https://api.datadoghq.com/csp-report
      Content-Type:
      - application/json
      DD-POOL:
      - dogweb
      Date:
      - Thu, 26 Nov 2020 10:19:28 GMT
      Pragma:
      - no-cache
      Set-Cookie:
      - DD-PSHARD=233; Max-Age=604800; Path=/; expires=Thu, 03-Dec-2020 10:19:28 GMT;
        secure; HttpOnly
      Strict-Transport-Security:
      - max-age=15724800;
      X-Content-Type-Options:
      - nosniff
      X-DD-Debug:
      - KOOy1lPBGMLqgfaB9uC20OTIJWXg6RQf2/pgyl9zFLuYtKhixa8ypYEhkGX7WYxW
      X-DD-VERSION:
      - '35.3435414'
      X-Frame-Options:
      - SAMEORIGIN
      X-RateLimit-Limit:
      - '12000'
      X-RateLimit-Period:
      - '60'
      X-RateLimit-Remaining:
      - '11998'
      X-RateLimit-Reset:
      - '32'
    status:
      code: 201
      message: Created
- request:
    body: null
    headers:
      Accept:
      - application/json
      Content-Type:
      - application/json
      Dd-Operation-Id:
      - ListIncidentServices
      User-Agent:
      - datadog-api-client-python/1.0.0b4.dev14+dirty (python 3.8.6; os Darwin; arch
        x86_64)
      x-datadog-parent-id:
      - '17780864009769525847'
      x-datadog-sampling-priority:
      - '1'
      x-datadog-trace-id:
      - '8349600556218198601'
    method: GET
    uri: https://api.datadoghq.com/api/v2/services?filter=datadog-api-client-python-test_get_a_list_of_all_incident_services_returns_ok_response-1606385968.134523
  response:
    body:
      string: '{"meta":{"sort":"ASC","pagination":{"total":5461,"size":1,"next_offset":1,"offset":0},"total":5461},"data":[{"type":"services","id":"c865f712-6790-5883-b058-5a475b85e5fd","attributes":{"name":"datadog-api-client-python-test_get_a_list_of_all_incident_services_returns_ok_response-1606385968.134523","created":"2020-11-26T10:19:28.598213+00:00","modified":"2020-11-26T10:19:28.598213+00:00"},"relationships":{"last_modified_by":{"data":{"type":"users","id":"3ad549bf-eba0-11e9-a77a-0705486660d0"}},"created_by":{"data":{"type":"users","id":"3ad549bf-eba0-11e9-a77a-0705486660d0"}}}}]}'
    headers:
      Cache-Control:
      - no-cache
      Connection:
      - keep-alive
      Content-Length:
      - '583'
      Content-Security-Policy:
      - frame-ancestors 'self'; report-uri https://api.datadoghq.com/csp-report
      Content-Type:
      - application/json
      DD-POOL:
      - dogweb
      Date:
      - Thu, 26 Nov 2020 10:19:28 GMT
      Pragma:
      - no-cache
      Set-Cookie:
      - DD-PSHARD=233; Max-Age=604800; Path=/; expires=Thu, 03-Dec-2020 10:19:28 GMT;
        secure; HttpOnly
      Strict-Transport-Security:
      - max-age=15724800;
      Vary:
      - Accept-Encoding
      X-Content-Type-Options:
      - nosniff
      X-DD-Debug:
      - 2V6J6bfi8Lp+2UjnPdTvcW5IjbRGxJrhStYZW/ACt/za6xfDiK/Y5IuDyUadsRtA
      X-DD-VERSION:
      - '35.3435414'
      X-Frame-Options:
      - SAMEORIGIN
      X-RateLimit-Limit:
      - '12000'
      X-RateLimit-Period:
      - '60'
      X-RateLimit-Remaining:
      - '11999'
      X-RateLimit-Reset:
      - '32'
    status:
      code: 200
      message: OK
- request:
    body: null
    headers:
      Accept:
      - application/json
      Content-Type:
      - application/json
      Dd-Operation-Id:
      - DeleteIncidentService
      User-Agent:
      - datadog-api-client-python/1.0.0b4.dev14+dirty (python 3.8.6; os Darwin; arch
        x86_64)
      x-datadog-parent-id:
      - '12512808894587244603'
      x-datadog-sampling-priority:
      - '1'
      x-datadog-trace-id:
      - '3577314957288532695'
    method: DELETE
    uri: https://api.datadoghq.com/api/v2/services/c865f712-6790-5883-b058-5a475b85e5fd
  response:
    body:
      string: ''
    headers:
      Cache-Control:
      - no-cache
      Connection:
      - keep-alive
      Content-Length:
      - '0'
      Content-Security-Policy:
      - frame-ancestors 'self'; report-uri https://api.datadoghq.com/csp-report
      Content-Type:
      - application/json
      DD-POOL:
      - dogweb
      Date:
      - Thu, 26 Nov 2020 10:19:29 GMT
      Pragma:
      - no-cache
      Set-Cookie:
      - DD-PSHARD=233; Max-Age=604800; Path=/; expires=Thu, 03-Dec-2020 10:19:29 GMT;
        secure; HttpOnly
      Strict-Transport-Security:
      - max-age=15724800;
      X-Content-Type-Options:
      - nosniff
      X-DD-Debug:
      - LkSOFVoHBcsyBoPbYbYfcEWZoNcVif5SL5dX3LvvR/J4mRuKXGmrGqdm859yDQ2v
      X-DD-VERSION:
      - '35.3435414'
      X-Frame-Options:
      - SAMEORIGIN
      X-RateLimit-Limit:
      - '12000'
      X-RateLimit-Period:
      - '60'
      X-RateLimit-Remaining:
      - '11997'
      X-RateLimit-Reset:
      - '31'
    status:
      code: 204
      message: No Content
version: 1
