interactions:
- request:
    body: '{"data": {"type": "teams", "attributes": {"name": "datadog-api-client-python-test_get_a_list_of_all_incident_teams_returns_ok_response-1608030688.625837"}}}'
    headers:
      Accept:
      - application/json
      Content-Type:
      - application/json
      Dd-Operation-Id:
      - CreateIncidentTeam
      User-Agent:
      - datadog-api-client-python/1.0.0b4.dev20 (python 3.9.0; os Darwin; arch x86_64)
      x-datadog-parent-id:
      - '17998237908366267968'
      x-datadog-sampling-priority:
      - '1'
      x-datadog-trace-id:
      - '3019851136906806206'
    method: POST
    uri: https://api.datadoghq.com/api/v2/teams
  response:
    body:
      string: '{"included":[{"type":"users","id":"3ad549bf-eba0-11e9-a77a-0705486660d0","attributes":{"name":null,"handle":"frog@datadoghq.com","created_at":"2019-10-02T08:15:39.795051+00:00","email":"frog@datadoghq.com","icon":"https://secure.gravatar.com/avatar/28a16dfe36e73b60c1d55872cb0f1172?s=48&d=retro","title":null,"verified":true,"service_account":false,"disabled":false,"allowed_login_methods":[],"status":"Active"},"relationships":{"org":{"data":{"type":"orgs","id":"4dee724d-00cc-11ea-a77b-570c9d03c6c5"}}}}],"data":{"type":"teams","id":"94991f8b-6afc-5955-8d0a-88aaa006289e","attributes":{"name":"datadog-api-client-python-test_get_a_list_of_all_incident_teams_returns_ok_response-1608030688.625837","created":"2020-12-15T11:11:29.060810+00:00","modified":"2020-12-15T11:11:29.060810+00:00"},"relationships":{"last_modified_by":{"data":{"type":"users","id":"3ad549bf-eba0-11e9-a77a-0705486660d0"}},"created_by":{"data":{"type":"users","id":"3ad549bf-eba0-11e9-a77a-0705486660d0"}}}}}'
    headers:
      Cache-Control:
      - no-cache
      Connection:
      - keep-alive
      Content-Length:
      - '982'
      Content-Security-Policy:
      - frame-ancestors 'self'; report-uri https://api.datadoghq.com/csp-report
      Content-Type:
      - application/json
      DD-POOL:
      - dogweb
      Date:
      - Tue, 15 Dec 2020 11:11:29 GMT
      Pragma:
      - no-cache
      Set-Cookie:
      - DD-PSHARD=233; Max-Age=604800; Path=/; expires=Tue, 22-Dec-2020 11:11:29 GMT;
        secure; HttpOnly
      Strict-Transport-Security:
      - max-age=15724800;
      X-Content-Type-Options:
      - nosniff
      X-DD-Debug:
      - RKpd63U5fOB9KQENZW/9vNmGmUgGzAVI24Vei0avdDhXQLPqbS5iSkbtN5YHNt1I
      X-DD-VERSION:
      - '35.3542700'
      X-Frame-Options:
      - SAMEORIGIN
      X-RateLimit-Limit:
      - '100'
      X-RateLimit-Period:
      - '60'
      X-RateLimit-Remaining:
      - '98'
      X-RateLimit-Reset:
      - '31'
    status:
      code: 201
      message: Created
- request:
    body: null
    headers:
      Accept:
      - application/json
      Content-Type:
      - application/json
      Dd-Operation-Id:
      - ListIncidentTeams
      User-Agent:
      - datadog-api-client-python/1.0.0b4.dev20 (python 3.9.0; os Darwin; arch x86_64)
      x-datadog-parent-id:
      - '1608009968828980538'
      x-datadog-sampling-priority:
      - '1'
      x-datadog-trace-id:
      - '3019851136906806206'
    method: GET
    uri: https://api.datadoghq.com/api/v2/teams?filter=datadog-api-client-python-test_get_a_list_of_all_incident_teams_returns_ok_response-1608030688.625837
  response:
    body:
      string: '{"meta":{"sort":"ASC","pagination":{"total":1333,"size":1,"next_offset":1,"offset":0},"total":1333},"data":[{"type":"teams","id":"94991f8b-6afc-5955-8d0a-88aaa006289e","attributes":{"name":"datadog-api-client-python-test_get_a_list_of_all_incident_teams_returns_ok_response-1608030688.625837","created":"2020-12-15T11:11:29.060810+00:00","modified":"2020-12-15T11:11:29.060810+00:00"},"relationships":{"last_modified_by":{"data":{"type":"users","id":"3ad549bf-eba0-11e9-a77a-0705486660d0"}},"created_by":{"data":{"type":"users","id":"3ad549bf-eba0-11e9-a77a-0705486660d0"}}}}]}'
    headers:
      Cache-Control:
      - no-cache
      Connection:
      - keep-alive
      Content-Length:
      - '577'
      Content-Security-Policy:
      - frame-ancestors 'self'; report-uri https://api.datadoghq.com/csp-report
      Content-Type:
      - application/json
      DD-POOL:
      - dogweb
      Date:
      - Tue, 15 Dec 2020 11:11:29 GMT
      Pragma:
      - no-cache
      Set-Cookie:
      - DD-PSHARD=233; Max-Age=604800; Path=/; expires=Tue, 22-Dec-2020 11:11:29 GMT;
        secure; HttpOnly
      Strict-Transport-Security:
      - max-age=15724800;
      Vary:
      - Accept-Encoding
      X-Content-Type-Options:
      - nosniff
      X-DD-Debug:
      - yHg1SN54kOfDRp2Aod0BXYSVxFx21V1jRKSkwPBeHEmd2sEVS/QK2WhkC8rNJWsm
      X-DD-VERSION:
      - '35.3542700'
      X-Frame-Options:
      - SAMEORIGIN
      X-RateLimit-Limit:
      - '100'
      X-RateLimit-Period:
      - '60'
      X-RateLimit-Remaining:
      - '99'
      X-RateLimit-Reset:
      - '31'
    status:
      code: 200
      message: OK
- request:
    body: null
    headers:
      Accept:
      - application/json
      Content-Type:
      - application/json
      Dd-Operation-Id:
      - DeleteIncidentTeam
      User-Agent:
      - datadog-api-client-python/1.0.0b4.dev20 (python 3.9.0; os Darwin; arch x86_64)
      x-datadog-parent-id:
      - '5684079435189905644'
      x-datadog-sampling-priority:
      - '1'
      x-datadog-trace-id:
      - '3019851136906806206'
    method: DELETE
    uri: https://api.datadoghq.com/api/v2/teams/94991f8b-6afc-5955-8d0a-88aaa006289e
  response:
    body:
      string: ''
    headers:
      Cache-Control:
      - no-cache
      Connection:
      - keep-alive
      Content-Length:
      - '0'
      Content-Security-Policy:
      - frame-ancestors 'self'; report-uri https://api.datadoghq.com/csp-report
      Content-Type:
      - application/json
      DD-POOL:
      - dogweb
      Date:
      - Tue, 15 Dec 2020 11:11:29 GMT
      Pragma:
      - no-cache
      Set-Cookie:
      - DD-PSHARD=233; Max-Age=604800; Path=/; expires=Tue, 22-Dec-2020 11:11:29 GMT;
        secure; HttpOnly
      Strict-Transport-Security:
      - max-age=15724800;
      X-Content-Type-Options:
      - nosniff
      X-DD-Debug:
      - WyPl7Uohyy2nhJ7RWrq85UM5TEMaIEIfRwQveR0xpNBygzZEP8S/qWubDM7SoNjW
      X-DD-VERSION:
      - '35.3542700'
      X-Frame-Options:
      - SAMEORIGIN
      X-RateLimit-Limit:
      - '100'
      X-RateLimit-Period:
      - '60'
      X-RateLimit-Remaining:
      - '98'
      X-RateLimit-Reset:
      - '31'
    status:
      code: 204
      message: No Content
version: 1
