interactions:
- request:
    body: '{"data": {"type": "services", "attributes": {"name": "datadog-api-client-python-test_get_a_list_of_all_incident_services_returns_ok_response-1608079863.407437"}}}'
    headers:
      Accept:
      - application/json
      Content-Type:
      - application/json
      Dd-Operation-Id:
      - CreateIncidentService
      User-Agent:
      - datadog-api-client-python/1.0.0b4.dev20 (python 3.9.0; os Darwin; arch x86_64)
      x-datadog-parent-id:
      - '8890505580634662113'
      x-datadog-sampling-priority:
      - '1'
      x-datadog-trace-id:
      - '16634486504532999275'
    method: POST
    uri: https://api.datadoghq.com/api/v2/services
  response:
    body:
      string: '{"included":[{"type":"users","id":"3ad549bf-eba0-11e9-a77a-0705486660d0","attributes":{"name":null,"handle":"frog@datadoghq.com","created_at":"2019-10-02T08:15:39.795051+00:00","email":"frog@datadoghq.com","icon":"https://secure.gravatar.com/avatar/28a16dfe36e73b60c1d55872cb0f1172?s=48&d=retro","title":null,"verified":true,"service_account":false,"disabled":false,"allowed_login_methods":[],"status":"Active"},"relationships":{"org":{"data":{"type":"orgs","id":"4dee724d-00cc-11ea-a77b-570c9d03c6c5"}}}}],"data":{"type":"services","id":"2ea29535-3c40-5e69-911d-0b95c4c58610","attributes":{"name":"datadog-api-client-python-test_get_a_list_of_all_incident_services_returns_ok_response-1608079863.407437","created":"2020-12-16T00:51:03.988784+00:00","modified":"2020-12-16T00:51:03.988784+00:00"},"relationships":{"last_modified_by":{"data":{"type":"users","id":"3ad549bf-eba0-11e9-a77a-0705486660d0"}},"created_by":{"data":{"type":"users","id":"3ad549bf-eba0-11e9-a77a-0705486660d0"}}}}}'
    headers:
      Cache-Control:
      - no-cache
      Connection:
      - keep-alive
      Content-Length:
      - '988'
      Content-Security-Policy:
      - frame-ancestors 'self'; report-uri https://api.datadoghq.com/csp-report
      Content-Type:
      - application/json
      DD-POOL:
      - dogweb
      Date:
      - Wed, 16 Dec 2020 00:51:04 GMT
      Pragma:
      - no-cache
      Set-Cookie:
      - DD-PSHARD=233; Max-Age=604800; Path=/; expires=Wed, 23-Dec-2020 00:51:03 GMT;
        secure; HttpOnly
      Strict-Transport-Security:
      - max-age=15724800;
      X-Content-Type-Options:
      - nosniff
      X-DD-Debug:
      - Q3iASbmC8CXcQczZ/mmesVF9Hl3S9A+qhV6PH+/be9wZv0jITjuol3WLqcRl7oS5
      X-DD-VERSION:
      - '35.3548464'
      X-Frame-Options:
      - SAMEORIGIN
      X-RateLimit-Limit:
      - '100'
      X-RateLimit-Period:
      - '60'
      X-RateLimit-Remaining:
      - '99'
      X-RateLimit-Reset:
      - '57'
    status:
      code: 201
      message: Created
- request:
    body: null
    headers:
      Accept:
      - application/json
      Content-Type:
      - application/json
      Dd-Operation-Id:
      - ListIncidentServices
      User-Agent:
      - datadog-api-client-python/1.0.0b4.dev20 (python 3.9.0; os Darwin; arch x86_64)
      x-datadog-parent-id:
      - '6173298359667044427'
      x-datadog-sampling-priority:
      - '1'
      x-datadog-trace-id:
      - '6951654568085391515'
    method: GET
    uri: https://api.datadoghq.com/api/v2/services?filter=datadog-api-client-python-test_get_a_list_of_all_incident_services_returns_ok_response-1608079863.407437
  response:
    body:
      string: '{"meta":{"sort":"ASC","pagination":{"total":7392,"size":1,"next_offset":1,"offset":0},"total":7392},"data":[{"type":"services","id":"2ea29535-3c40-5e69-911d-0b95c4c58610","attributes":{"name":"datadog-api-client-python-test_get_a_list_of_all_incident_services_returns_ok_response-1608079863.407437","created":"2020-12-16T00:51:03.988784+00:00","modified":"2020-12-16T00:51:03.988784+00:00"},"relationships":{"last_modified_by":{"data":{"type":"users","id":"3ad549bf-eba0-11e9-a77a-0705486660d0"}},"created_by":{"data":{"type":"users","id":"3ad549bf-eba0-11e9-a77a-0705486660d0"}}}}]}'
    headers:
      Cache-Control:
      - no-cache
      Connection:
      - keep-alive
      Content-Length:
      - '583'
      Content-Security-Policy:
      - frame-ancestors 'self'; report-uri https://api.datadoghq.com/csp-report
      Content-Type:
      - application/json
      DD-POOL:
      - dogweb
      Date:
      - Wed, 16 Dec 2020 00:51:04 GMT
      Pragma:
      - no-cache
      Set-Cookie:
      - DD-PSHARD=233; Max-Age=604800; Path=/; expires=Wed, 23-Dec-2020 00:51:04 GMT;
        secure; HttpOnly
      Strict-Transport-Security:
      - max-age=15724800;
      Vary:
      - Accept-Encoding
      X-Content-Type-Options:
      - nosniff
      X-DD-Debug:
      - LYsZ0Yx6eBAuyo7daRCU44YMxz7whaow2DP3vSdsKGIEYbXvJNYBjlZ+OHX/fFOc
      X-DD-VERSION:
      - '35.3548464'
      X-Frame-Options:
      - SAMEORIGIN
      X-RateLimit-Limit:
      - '100'
      X-RateLimit-Period:
      - '60'
      X-RateLimit-Remaining:
      - '99'
      X-RateLimit-Reset:
      - '56'
    status:
      code: 200
      message: OK
- request:
    body: null
    headers:
      Accept:
      - application/json
      Content-Type:
      - application/json
      Dd-Operation-Id:
      - DeleteIncidentService
      User-Agent:
      - datadog-api-client-python/1.0.0b4.dev20 (python 3.9.0; os Darwin; arch x86_64)
      x-datadog-parent-id:
      - '1434369828360189953'
      x-datadog-sampling-priority:
      - '1'
      x-datadog-trace-id:
      - '5949192832547759889'
    method: DELETE
    uri: https://api.datadoghq.com/api/v2/services/2ea29535-3c40-5e69-911d-0b95c4c58610
  response:
    body:
      string: ''
    headers:
      Cache-Control:
      - no-cache
      Connection:
      - keep-alive
      Content-Length:
      - '0'
      Content-Security-Policy:
      - frame-ancestors 'self'; report-uri https://api.datadoghq.com/csp-report
      Content-Type:
      - application/json
      DD-POOL:
      - dogweb
      Date:
      - Wed, 16 Dec 2020 00:51:05 GMT
      Pragma:
      - no-cache
      Set-Cookie:
      - DD-PSHARD=233; Max-Age=604800; Path=/; expires=Wed, 23-Dec-2020 00:51:05 GMT;
        secure; HttpOnly
      Strict-Transport-Security:
      - max-age=15724800;
      X-Content-Type-Options:
      - nosniff
      X-DD-Debug:
      - laGkCMnt9yzADERvt5/nU5tJ2BKmoQx1BUE4x31rlC7mriAyKM9Zk5E+JikpAz3V
      X-DD-VERSION:
      - '35.3548464'
      X-Frame-Options:
      - SAMEORIGIN
      X-RateLimit-Limit:
      - '100'
      X-RateLimit-Period:
      - '60'
      X-RateLimit-Remaining:
      - '99'
      X-RateLimit-Reset:
      - '55'
    status:
      code: 204
      message: No Content
version: 1
