interactions:
- request:
    body: '{"data": {"attributes": {"name": "Test-Get_a_list_of_all_incident_teams_returns_OK_response-1617999657"},
      "type": "teams"}}'
    headers:
      Accept:
      - application/json
      Content-Type:
      - application/json
      Dd-Operation-Id:
      - CreateIncidentTeam
      User-Agent:
      - datadog-api-client-python/1.0.0b8.dev29 (python 3.8.8; os Darwin; arch x86_64)
    method: POST
    uri: https://api.datadoghq.com/api/v2/teams
  response:
    body:
      string: '{"included":[{"type":"users","id":"3ad549bf-eba0-11e9-a77a-0705486660d0","attributes":{"name":null,"handle":"frog@datadoghq.com","created_at":"2019-10-02T08:15:39.795051+00:00","modified_at":"2020-06-15T12:33:12.884459+00:00","email":"frog@datadoghq.com","icon":"https://secure.gravatar.com/avatar/28a16dfe36e73b60c1d55872cb0f1172?s=48&d=retro","title":null,"verified":true,"service_account":false,"disabled":false,"allowed_login_methods":[],"status":"Active"},"relationships":{"org":{"data":{"type":"orgs","id":"4dee724d-00cc-11ea-a77b-570c9d03c6c5"}}}}],"data":{"type":"teams","id":"e90a654e-2aa8-57b5-9d8e-0179e7195945","attributes":{"name":"Test-Get_a_list_of_all_incident_teams_returns_OK_response-1617999657","created":"2021-04-09T20:20:57.212764+00:00","modified":"2021-04-09T20:20:57.212764+00:00"},"relationships":{"last_modified_by":{"data":{"type":"users","id":"3ad549bf-eba0-11e9-a77a-0705486660d0"}},"created_by":{"data":{"type":"users","id":"3ad549bf-eba0-11e9-a77a-0705486660d0"}}}}}'
    headers:
      Connection:
      - keep-alive
      Content-Length:
      - '998'
      Content-Type:
      - application/json
      Date:
      - Fri, 09 Apr 2021 20:20:57 GMT
      cache-control:
      - no-cache
      content-security-policy:
      - frame-ancestors 'self'; report-uri https://api.datadoghq.com/csp-report
      pragma:
      - no-cache
      strict-transport-security:
      - max-age=15724800;
      x-content-type-options:
      - nosniff
      x-dd-debug:
      - dPySkcOzIZtKyMKDAAzuysY3gNGGj6RtYogGuSb76E8mPvoqzREyRp6lPYm91hQU
      x-dd-version:
      - '35.4280781'
      x-frame-options:
      - SAMEORIGIN
      x-ratelimit-limit:
      - '100'
      x-ratelimit-period:
      - '60'
      x-ratelimit-remaining:
      - '98'
      x-ratelimit-reset:
      - '3'
    status:
      code: 201
      message: Created
- request:
    body: null
    headers:
      Accept:
      - application/json
      Content-Type:
      - application/json
      Dd-Operation-Id:
      - ListIncidentTeams
      User-Agent:
      - datadog-api-client-python/1.0.0b8.dev29 (python 3.8.8; os Darwin; arch x86_64)
    method: GET
    uri: https://api.datadoghq.com/api/v2/teams?filter=Test-Get_a_list_of_all_incident_teams_returns_OK_response-1617999657
  response:
    body:
      string: '{"meta":{"sort":"ASC","pagination":{"total":1404,"size":1,"next_offset":1,"offset":0},"total":1404},"data":[{"type":"teams","id":"e90a654e-2aa8-57b5-9d8e-0179e7195945","attributes":{"name":"Test-Get_a_list_of_all_incident_teams_returns_OK_response-1617999657","created":"2021-04-09T20:20:57.212764+00:00","modified":"2021-04-09T20:20:57.212764+00:00"},"relationships":{"last_modified_by":{"data":{"type":"users","id":"3ad549bf-eba0-11e9-a77a-0705486660d0"}},"created_by":{"data":{"type":"users","id":"3ad549bf-eba0-11e9-a77a-0705486660d0"}}}}]}'
    headers:
      Connection:
      - keep-alive
      Content-Length:
      - '544'
      Content-Type:
      - application/json
      Date:
      - Fri, 09 Apr 2021 20:20:57 GMT
      cache-control:
      - no-cache
      content-security-policy:
      - frame-ancestors 'self'; report-uri https://api.datadoghq.com/csp-report
      pragma:
      - no-cache
      strict-transport-security:
      - max-age=15724800;
      vary:
      - Accept-Encoding
      x-content-type-options:
      - nosniff
      x-dd-debug:
      - Wjq53IVIwnB4SiR238oOYgHFMq/ZYP0LQ/Dv8C2fFLBwTje/dWJHu6pI6vIOK1zG
      x-dd-version:
      - '35.4280781'
      x-frame-options:
      - SAMEORIGIN
      x-ratelimit-limit:
      - '100'
      x-ratelimit-period:
      - '60'
      x-ratelimit-remaining:
      - '99'
      x-ratelimit-reset:
      - '3'
    status:
      code: 200
      message: OK
- request:
    body: null
    headers:
      Accept:
      - application/json
      Content-Type:
      - application/json
      Dd-Operation-Id:
      - DeleteIncidentTeam
      User-Agent:
      - datadog-api-client-python/1.0.0b8.dev29 (python 3.8.8; os Darwin; arch x86_64)
    method: DELETE
    uri: https://api.datadoghq.com/api/v2/teams/e90a654e-2aa8-57b5-9d8e-0179e7195945
  response:
    body:
      string: ''
    headers:
      Connection:
      - keep-alive
      Content-Length:
      - '0'
      Content-Type:
      - application/json
      Date:
      - Fri, 09 Apr 2021 20:20:58 GMT
      cache-control:
      - no-cache
      content-security-policy:
      - frame-ancestors 'self'; report-uri https://api.datadoghq.com/csp-report
      pragma:
      - no-cache
      strict-transport-security:
      - max-age=15724800;
      x-content-type-options:
      - nosniff
      x-dd-debug:
      - fIO2C4qGDheGHy4YbS+r3a3CXbh4cbRo7roILOimQyiHGjQdOat0cIpWCkupM1uX
      x-dd-version:
      - '35.4280781'
      x-frame-options:
      - SAMEORIGIN
      x-ratelimit-limit:
      - '100'
      x-ratelimit-period:
      - '60'
      x-ratelimit-remaining:
      - '98'
      x-ratelimit-reset:
      - '2'
    status:
      code: 204
      message: No Content
version: 1
